{
    "@odata.context": "http://em-tal-ws8.em.ua-net.ua.edu/cmc.crm.workspaces/NexusCrmOData/$metadata#Participants",
    "value": [
        {
            "WaitlistEmailSent": null,
            "TicketName": null,
            "RefundStatus": null,
            "CustomField3": null,
            "CustomField4": null,
            "ManualPayment": null,
            "Reasonformanualpayment": null,
            "InvitationSentElectronic": null,
            "InvitationSentPrint": null,
            "CreditCardType": null,
            "NoRefundAgreement": null,
            "TotalPaidbyPrimaryParticipant": null,
            "Guestsnames": null,
            "TimeSlot": null,
            "DiscountedCost": null,
            "AmountPaid": null,
            "BalanceDue": null,
            "RegistrationDate": "2010-03-25T13:28:00-06:00",
            "ParticipationStatus": 2,
            "GroupRegistration": 2,
            "SpecialNeeds": null,
            "PaymentMethod": null,
            "Guid": null,
            "ParticipantId": 29,
            "Name": "sudhir koduri",
            "OwnerId": 166,
            "CreatedOn": "2010-03-25T13:28:52.75-06:00",
            "IsDeleted": 0,
            "LastUpdatedOn": "2010-04-30T09:33:13.523-06:00",
            "CreatedBy": 166,
            "TeamId": null,
            "BaseObject": 3,
            "RSVPStatus": null,
            "SpecialDietaryNeeds": null,
            "DietaryNotes": null,
            "AssistiveAccomodations": null,
            "AssistiveAccommodationsNotes": null,
            "TourRequested": null,
            "Guests": null,
            "CustomField1": null,
            "Requestedtopics": null,
            "ParticipantEmail": null,
            "TShirtSize": null,
            "SendMailer": null,
            "CustomField2": null,
            "PaymentNumber": null,
            "ProcessforRefund": null,
            "PaymentStatus": null,
            "DiscountAmount": null,
            "OrderNumber": null,
            "RefundAmount": null,
            "SessionID": null,
            "CancellationFee": null,
            "RefundTouchnetID": null,
            "PreferredCollege": null,
            "RefundProcessedDate": null,
            "LeadParticipant": null,
            "LinkedPrice": null,
            "EventNameId": 11,
            "ContactNameId": null,
            "PayeeId": null,
            "PrimaryParticipantId": null
        },
        {
            "WaitlistEmailSent": null,
            "TicketName": null,
            "RefundStatus": null,
            "CustomField3": null,
            "CustomField4": null,
            "ManualPayment": null,
            "Reasonformanualpayment": null,
            "InvitationSentElectronic": null,
            "InvitationSentPrint": null,
            "CreditCardType": null,
            "NoRefundAgreement": null,
            "TotalPaidbyPrimaryParticipant": null,
            "Guestsnames": null,
            "TimeSlot": null,
            "DiscountedCost": null,
            "AmountPaid": null,
            "BalanceDue": null,
            "RegistrationDate": "2010-05-04T13:17:00-06:00",
            "ParticipationStatus": 2,
            "GroupRegistration": 2,
            "SpecialNeeds": null,
            "PaymentMethod": null,
            "Guid": null,
            "ParticipantId": 38,
            "Name": "sudhir koduri",
            "OwnerId": 166,
            "CreatedOn": "2010-05-04T13:17:11.443-06:00",
            "IsDeleted": 0,
            "LastUpdatedOn": "2010-06-10T14:29:36.273-06:00",
            "CreatedBy": 166,
            "TeamId": null,
            "BaseObject": 3,
            "RSVPStatus": null,
            "SpecialDietaryNeeds": null,
            "DietaryNotes": null,
            "AssistiveAccomodations": null,
            "AssistiveAccommodationsNotes": null,
            "TourRequested": null,
            "Guests": null,
            "CustomField1": null,
            "Requestedtopics": null,
            "ParticipantEmail": null,
            "TShirtSize": null,
            "SendMailer": null,
            "CustomField2": null,
            "PaymentNumber": null,
            "ProcessforRefund": null,
            "PaymentStatus": null,
            "DiscountAmount": null,
            "OrderNumber": null,
            "RefundAmount": null,
            "SessionID": null,
            "CancellationFee": null,
            "RefundTouchnetID": null,
            "PreferredCollege": null,
            "RefundProcessedDate": null,
            "LeadParticipant": null,
            "LinkedPrice": null,
            "EventNameId": 11,
            "ContactNameId": null,
            "PayeeId": null,
            "PrimaryParticipantId": null
        },
        {
            "WaitlistEmailSent": null,
            "TicketName": null,
            "RefundStatus": null,
            "CustomField3": null,
            "CustomField4": null,
            "ManualPayment": null,
            "Reasonformanualpayment": null,
            "InvitationSentElectronic": null,
            "InvitationSentPrint": null,
            "CreditCardType": null,
            "NoRefundAgreement": null,
            "TotalPaidbyPrimaryParticipant": null,
            "Guestsnames": null,
            "TimeSlot": null,
            "DiscountedCost": null,
            "AmountPaid": null,
            "BalanceDue": null,
            "RegistrationDate": "2010-07-08T15:24:00-06:00",
            "ParticipationStatus": 4,
            "GroupRegistration": 2,
            "SpecialNeeds": null,
            "PaymentMethod": null,
            "Guid": null,
            "ParticipantId": 52,
            "Name": "sudhir koduri",
            "OwnerId": 166,
            "CreatedOn": "2010-07-08T15:24:14.25-06:00",
            "IsDeleted": 0,
            "LastUpdatedOn": "2010-07-21T13:41:09.697-06:00",
            "CreatedBy": 166,
            "TeamId": null,
            "BaseObject": 3,
            "RSVPStatus": null,
            "SpecialDietaryNeeds": null,
            "DietaryNotes": null,
            "AssistiveAccomodations": null,
            "AssistiveAccommodationsNotes": null,
            "TourRequested": null,
            "Guests": null,
            "CustomField1": null,
            "Requestedtopics": null,
            "ParticipantEmail": null,
            "TShirtSize": null,
            "SendMailer": null,
            "CustomField2": null,
            "PaymentNumber": null,
            "ProcessforRefund": null,
            "PaymentStatus": null,
            "DiscountAmount": null,
            "OrderNumber": null,
            "RefundAmount": null,
            "SessionID": null,
            "CancellationFee": null,
            "RefundTouchnetID": null,
            "PreferredCollege": null,
            "RefundProcessedDate": null,
            "LeadParticipant": null,
            "LinkedPrice": null,
            "EventNameId": 11,
            "ContactNameId": 2068322,
            "PayeeId": null,
            "PrimaryParticipantId": null
        },
        {
            "WaitlistEmailSent": null,
            "TicketName": null,
            "RefundStatus": null,
            "CustomField3": null,
            "CustomField4": null,
            "ManualPayment": null,
            "Reasonformanualpayment": null,
            "InvitationSentElectronic": null,
            "InvitationSentPrint": null,
            "CreditCardType": null,
            "NoRefundAgreement": null,
            "TotalPaidbyPrimaryParticipant": null,
            "Guestsnames": null,
            "TimeSlot": null,
            "DiscountedCost": null,
            "AmountPaid": null,
            "BalanceDue": null,
            "RegistrationDate": "2010-09-28T11:12:00-06:00",
            "ParticipationStatus": 2,
            "GroupRegistration": 2,
            "SpecialNeeds": null,
            "PaymentMethod": null,
            "Guid": null,
            "ParticipantId": 385,
            "Name": "Ely Jones",
            "OwnerId": 166,
            "CreatedOn": "2010-09-28T11:12:17.277-06:00",
            "IsDeleted": 0,
            "LastUpdatedOn": "2010-09-28T11:12:21.99-06:00",
            "CreatedBy": 166,
            "TeamId": null,
            "BaseObject": 3,
            "RSVPStatus": null,
            "SpecialDietaryNeeds": null,
            "DietaryNotes": null,
            "AssistiveAccomodations": null,
            "AssistiveAccommodationsNotes": null,
            "TourRequested": null,
            "Guests": null,
            "CustomField1": null,
            "Requestedtopics": null,
            "ParticipantEmail": null,
            "TShirtSize": null,
            "SendMailer": null,
            "CustomField2": null,
            "PaymentNumber": null,
            "ProcessforRefund": null,
            "PaymentStatus": null,
            "DiscountAmount": null,
            "OrderNumber": null,
            "RefundAmount": null,
            "SessionID": null,
            "CancellationFee": null,
            "RefundTouchnetID": null,
            "PreferredCollege": null,
            "RefundProcessedDate": null,
            "LeadParticipant": null,
            "LinkedPrice": null,
            "EventNameId": 11,
            "ContactNameId": 1110195,
            "PayeeId": null,
            "PrimaryParticipantId": null
        },
        {
            "WaitlistEmailSent": null,
            "TicketName": null,
            "RefundStatus": null,
            "CustomField3": null,
            "CustomField4": null,
            "ManualPayment": null,
            "Reasonformanualpayment": null,
            "InvitationSentElectronic": null,
            "InvitationSentPrint": null,
            "CreditCardType": null,
            "NoRefundAgreement": null,
            "TotalPaidbyPrimaryParticipant": null,
            "Guestsnames": null,
            "TimeSlot": null,
            "DiscountedCost": null,
            "AmountPaid": null,
            "BalanceDue": null,
            "RegistrationDate": null,
            "ParticipationStatus": 3,
            "GroupRegistration": null,
            "SpecialNeeds": null,
            "PaymentMethod": null,
            "Guid": null,
            "ParticipantId": 389,
            "Name": "William C Edmonson",
            "OwnerId": 147,
            "CreatedOn": "2012-01-31T14:25:56.767-06:00",
            "IsDeleted": 0,
            "LastUpdatedOn": "2012-01-31T14:31:03.053-06:00",
            "CreatedBy": 241,
            "TeamId": 1,
            "BaseObject": 3,
            "RSVPStatus": null,
            "SpecialDietaryNeeds": null,
            "DietaryNotes": null,
            "AssistiveAccomodations": null,
            "AssistiveAccommodationsNotes": null,
            "TourRequested": null,
            "Guests": null,
            "CustomField1": null,
            "Requestedtopics": null,
            "ParticipantEmail": null,
            "TShirtSize": null,
            "SendMailer": null,
            "CustomField2": null,
            "PaymentNumber": null,
            "ProcessforRefund": null,
            "PaymentStatus": null,
            "DiscountAmount": null,
            "OrderNumber": null,
            "RefundAmount": null,
            "SessionID": null,
            "CancellationFee": null,
            "RefundTouchnetID": null,
            "PreferredCollege": null,
            "RefundProcessedDate": null,
            "LeadParticipant": null,
            "LinkedPrice": null,
            "EventNameId": 11,
            "ContactNameId": 3064333,
            "PayeeId": null,
            "PrimaryParticipantId": null
        }
    ]
}
